Utilities Tutorial • GAMBLR
…
#calculate PGA for the same sample.
calculate_pga(this_seg = sample_seg)

##   sample_id       PGA
## 1 14-36022T 0.8705917

Adjust Ploidy

The adjust_ploidy function returns a seg file with log.ratios adjusted to the overall sample ploidy. This function adjusts the ploidy of the sample using the percent of genome altered (PGA). The PGA is calculated internally, but can also be optionally provided as data frame if calculated from other sources. Only the samples above the threshold-provided PGA (pga_cutoff) will have ploidy adjusted. The function can work with either individual or multi-sample seg file.

#ajdust ploidy
adjust_ploidy(this_seg = sample_seg)

## # A tibble: 187 × 6
##    sample    chrom     start       end LOH_flag log.ratio
##    <chr>     <chr>     <dbl>     <dbl>    <dbl>     <dbl>
##  1 14-36022T 1         10001    762600        0         0
##  2 14-36022T 1        762601 121500000        0         0
##  3 14-36022T 1     142600000 248277662        0         0
##  4 14-36022T 1     248277663 248278622        0         0
##  5 14-36022T 1     248278623 249226346        0        -1
##  6 14-36022T 1     249226347 249250620        0         0
##  7 14-36022T 2         10001     11319        0         0
##  8 14-36022T 2         11320  90500000        0         0
##  9 14-36022T 2      96800000 186704965        0         0
## 10 14-36022T 2     186704966 186712276        0         0
## # … with 177 more rows
…
## # A tibble: 2,006 × 2
##    Hugo_Symbol     n
##    <fct>       <int>
##  1 AC119673.1      1
##  2 ACBD6           1
##  3 ACTRT2          1
##  4 AGTRAP          1
##  5 AHCYL1          1
##  6 AKIRIN1         1
##  7 AL109927.1      1
##  8 AL136115.1      1
##  9 AL138847.1      1
## 10 AL139147.1      1
## # … with 1,996 more rows
…
