ASHM Multi-panel Rainbow Plot — ashm_multi_rainbow_plot • GAMBLR
…
    Examples

#get lymphgen colours
lymphgen_colours = get_gambl_colours(classification = "lymphgen")

#build plot
ashm_multi_rainbow_plot(regions_to_display = c("BCL2-TSS",
                                               "MYC-TSS",
                                               "SGK1-TSS",
                                               "IGL"),
                        custom_colours = lymphgen_colours,
                        seq_type = "genome")
#> # A tibble: 88 × 8
#>    chr_name hg19_start  hg19_end gene    region   regulatory_comm… name  regions
#>    <chr>         <dbl>     <dbl> <chr>   <chr>    <chr>            <chr> <chr>  
#>  1 chr2       96808901  96811913 DUSP2   intron-1 enhancer         DUSP… chr2:9…
#>  2 chr17      56407732  56410140 TSPOAP1 interge… enhancer         TSPO… chr17:…
#>  3 chr11     128339774 128345731 ETS1    introns  enhancer         ETS1… chr11:…
#>  4 chr11     128388492 128394163 ETS1    TSS-2    active_promoter  ETS1… chr11:…
#>  5 chr6       31548325  31550717 LTB     intron-1 enhancer         LTB-… chr6:3…
#>  6 chr3       32020518  32024930 OSBPL10 TSS-1    active_promoter  OSBP… chr3:3…
#>  7 chr11      65265237  65268359 MALAT1  ncRNA    enhancer         MALA… chr11:…
#>  8 chr11      65190369  65192380 NEAT1   ncRNA    enhancer         NEAT… chr11:…
#>  9 chr16      11347512  11350007 SOCS1   intron-1 enhancer         SOCS… chr16:…
#> 10 chr1      226921088 226927982 ITPKB   intron-1 enhancer         ITPK… chr1:2…
#> # … with 78 more rows
…
