Find Expected Outputs. — find_expected_outputs • GAMBLR
…
    Details

    This function takes a tool or pipeline with tool_name and the unix group with unix_group and returns information such as paths to individual files.
Optionally, the user can provide an already loaded data frame with all the file details (targ_df).
for more information and examples, refer to the parameter descriptions as well as function examples.

    Examples

#get paths to unmatched manta bedpe files
ex_outs = find_expected_outputs(tool_name = "manta",
                               unix_group = "gambl",
                               filename_end_pattern = "unmatched.somaticSV.bedpe")
#> # A tibble: 963 × 11
#>    unix_group tool_name tool_version seq_type genome_build tumour_sample_id     
#>    <chr>      <chr>     <chr>        <chr>    <chr>        <chr>                
#>  1 gambl      manta     2.3          genome   hg38         BLGSP-71-06-00001-01…
#>  2 gambl      manta     2.3          genome   hg38         BLGSP-71-06-00001-01…
#>  3 gambl      manta     2.3          genome   hg38         BLGSP-71-06-00005-01…
#>  4 gambl      manta     2.3          genome   hg38         BLGSP-71-06-00005-01…
#>  5 gambl      manta     2.3          genome   hg38         BLGSP-71-06-00004-01…
#>  6 gambl      manta     2.3          genome   hg38         BLGSP-71-06-00004-01…
#>  7 gambl      manta     2.3          genome   hg38         BLGSP-71-06-00007-01…
#>  8 gambl      manta     2.3          genome   hg38         BLGSP-71-06-00007-01…
#>  9 gambl      manta     2.3          genome   hg38         BLGSP-71-06-00013-01…
#> 10 gambl      manta     2.3          genome   hg38         BLGSP-71-06-00080-01…
#> # … with 953 more rows, and 5 more variables: normal_sample_id <chr>,
#> #   pairing_status <chr>, file_path <chr>, file_timestamp <dttm>,
#> #   output_type <chr>
…
