Gene Cloud Plot — prettyGeneCloud • GAMBLR
…
#> # A tibble: 2,006 × 2
#>    Hugo_Symbol     n
#>    <fct>       <int>
#>  1 AC119673.1      1
#>  2 ACBD6           1
#>  3 ACTRT2          1
#>  4 AGTRAP          1
#>  5 AHCYL1          1
#>  6 AKIRIN1         1
#>  7 AL109927.1      1
#>  8 AL136115.1      1
#>  9 AL138847.1      1
#> 10 AL139147.1      1
#> # ℹ 1,996 more rows
…
